<svg width="183" height="273" viewBox="0 0 183 273" fill="none" xmlns="http://www.w3.org/2000/svg">
<g clip-path="url(#clip0)">
<path d="M151.248 144.838L147.275 143.564C146.689 143.377 146.157 143.055 145.724 142.619C145.034 141.935 144.655 141.028 144.655 140.067V136.17L145.839 135.482C148.306 134.048 149.837 131.445 149.837 128.689V121.987C149.837 121.978 149.837 121.97 149.837 121.962V116.11C149.837 111.267 145.71 107.327 140.636 107.327H132.519C127.445 107.327 123.318 111.267 123.318 116.11V121.149V121.157V128.689C123.318 131.445 124.851 134.048 127.317 135.482L128.504 136.172V140.067C128.504 141.089 128.052 142.078 127.269 142.775C126.867 143.132 126.397 143.398 125.873 143.566L121.905 144.838C119.84 145.501 118 146.561 116.429 147.985C116.414 147.998 116.4 148.011 116.385 148.024C116.37 148.037 116.354 148.051 116.339 148.064C116.324 148.078 116.312 148.092 116.297 148.107C116.26 148.144 116.222 148.18 116.187 148.22C116.162 148.246 116.139 148.273 116.115 148.301C116.086 148.336 116.057 148.372 116.03 148.409C116.005 148.443 115.98 148.477 115.957 148.512C115.936 148.544 115.914 148.575 115.895 148.608C115.87 148.649 115.847 148.689 115.825 148.73C115.81 148.76 115.793 148.79 115.779 148.82C115.759 148.865 115.738 148.908 115.72 148.953C115.707 148.984 115.696 149.016 115.683 149.047C115.668 149.091 115.653 149.134 115.639 149.18C115.63 149.214 115.62 149.249 115.61 149.285C115.601 149.327 115.591 149.367 115.583 149.408C115.574 149.449 115.568 149.491 115.562 149.531C115.557 149.568 115.552 149.605 115.548 149.641C115.544 149.687 115.541 149.733 115.539 149.779C115.537 149.812 115.537 149.846 115.537 149.879C115.537 149.927 115.539 149.975 115.541 150.023C115.543 150.056 115.546 150.09 115.55 150.124C115.554 150.169 115.561 150.215 115.568 150.261C115.574 150.299 115.581 150.335 115.59 150.373C115.598 150.413 115.608 150.453 115.617 150.494C115.63 150.537 115.643 150.581 115.657 150.624C115.668 150.657 115.679 150.691 115.691 150.723C115.709 150.772 115.73 150.821 115.752 150.87C115.76 150.887 115.766 150.906 115.774 150.923C116.522 152.478 116.901 154.139 116.901 155.86V168.825C116.901 170.216 118.084 171.343 119.542 171.343C121 171.343 122.183 170.216 122.183 168.825V155.86C122.183 154.079 121.894 152.342 121.328 150.674C122.025 150.229 122.78 149.872 123.592 149.611L127.557 148.34C128.27 148.111 128.942 147.803 129.568 147.421C130.664 147.727 131.776 147.957 132.901 148.107L128.924 161.513C128.678 162.344 128.895 163.236 129.499 163.879L134.355 169.042C134.841 169.559 135.528 169.862 136.256 169.879H136.322C137.025 169.879 137.701 169.611 138.197 169.134L143.568 163.972C144.257 163.308 144.505 162.336 144.213 161.446L139.812 148.031C140.986 147.849 142.143 147.577 143.28 147.224C143.993 147.698 144.774 148.078 145.598 148.34L149.562 149.611C153.468 150.866 156.093 154.357 156.093 158.294V168.825C156.093 170.216 157.275 171.343 158.735 171.343C160.193 171.343 161.376 170.216 161.376 168.825V158.294C161.376 152.192 157.307 146.785 151.248 144.838ZM136.479 143.279C135.384 143.3 134.297 143.227 133.227 143.061C133.593 142.109 133.787 141.097 133.787 140.067V139.049C134.691 139.357 135.634 139.512 136.578 139.512C137.523 139.512 138.468 139.356 139.372 139.048V140.067C139.372 141.044 139.54 141.998 139.862 142.897C138.75 143.126 137.619 143.254 136.479 143.279ZM128.602 122.716L133.356 120.35L144.554 123.788V128.688C144.554 129.7 143.993 130.656 143.088 131.182L138.163 134.046C137.185 134.613 135.971 134.613 134.993 134.046L130.068 131.182C129.163 130.656 128.602 129.7 128.602 128.688V122.716ZM132.519 112.364H140.638C142.797 112.364 144.554 114.044 144.554 116.11V118.495L133.923 115.232C133.249 115.025 132.517 115.085 131.89 115.398L128.602 117.034V116.11C128.602 114.044 130.359 112.364 132.519 112.364ZM136.419 163.692L134.403 161.549L136.449 154.653L138.697 161.502L136.419 163.692Z" fill="#FF8A00"/>
<path d="M110.134 139.849L105.247 138.279C104.427 138.017 103.68 137.566 103.088 136.977C103.088 136.976 103.086 136.974 103.085 136.973C102.122 136.009 101.592 134.747 101.592 133.417V128.298L103.346 127.279C106.202 125.619 107.977 122.605 107.977 119.412V111.153C107.977 111.144 107.977 111.136 107.977 111.128V103.927C107.977 98.2855 103.169 93.6963 97.2603 93.6963H87.2661C81.3576 93.6963 76.551 98.2855 76.551 103.927V110.139V110.147V119.412C76.551 122.605 78.3243 125.619 81.1801 127.279L82.9355 128.3V133.417C82.9355 134.839 82.3082 136.214 81.2228 137.179C80.656 137.68 80.0026 138.05 79.2762 138.281L74.3954 139.851C70.8159 141.001 67.7262 143.232 65.5746 146.143C64.6516 145.611 63.6652 145.174 62.6211 144.838L58.6468 143.564C58.0539 143.376 57.5339 143.061 57.0964 142.623C56.4058 141.933 56.0248 141.027 56.0248 140.067V136.172L57.2106 135.482C59.6772 134.048 61.2083 131.445 61.2083 128.689V121.987C61.2083 121.978 61.2083 121.97 61.2083 121.962V116.11C61.2083 111.267 57.0813 107.327 52.0078 107.327H43.8901C38.8166 107.327 34.6896 111.267 34.6896 116.11V121.149V121.157V128.689C34.6896 131.445 36.2221 134.048 38.6887 135.482L39.8745 136.172V140.067C39.8745 141.091 39.4233 142.079 38.6392 142.775C38.2361 143.133 37.767 143.4 37.2456 143.566L33.2796 144.838C27.2225 146.785 23.1533 152.191 23.1533 158.294V168.825C23.1533 170.215 24.335 171.343 25.7946 171.343C27.2528 171.343 28.4359 170.215 28.4359 168.825V158.294C28.4359 154.355 31.0606 150.866 34.9648 149.611L38.9294 148.34C39.6434 148.111 40.3133 147.801 40.9393 147.42C42.0357 147.727 43.1472 147.957 44.2725 148.106L40.2955 161.513C40.0492 162.343 40.2666 163.236 40.8705 163.879L45.7266 169.042C46.2122 169.559 46.9 169.861 47.6264 169.879H47.6924C48.3967 169.879 49.0722 169.611 49.5688 169.134L54.938 163.97C55.6272 163.308 55.8762 162.336 55.5832 161.446L51.1824 148.031C52.3559 147.849 53.5142 147.577 54.6519 147.223C55.3672 147.699 56.1486 148.079 56.9712 148.339L60.9345 149.611C61.7475 149.872 62.5042 150.229 63.2002 150.674C62.6348 152.342 62.346 154.079 62.346 155.858V168.825C62.346 170.215 63.5276 171.343 64.9872 171.343C66.4454 171.343 67.6285 170.215 67.6285 168.825V155.858C67.6285 154.139 68.0068 152.478 68.7552 150.92C70.1749 147.959 72.845 145.662 76.0833 144.622L80.9573 143.055C81.8762 142.762 82.7374 142.354 83.5353 141.839C85.1668 142.312 86.8314 142.639 88.5179 142.821L83.428 159.981C83.1817 160.811 83.3977 161.704 84.003 162.347L89.9803 168.704C90.4659 169.219 91.1537 169.522 91.8814 169.539C91.9034 169.541 91.9255 169.541 91.9475 169.541C92.6504 169.541 93.3259 169.273 93.8225 168.796L100.434 162.438C101.123 161.776 101.371 160.804 101.079 159.914L95.4472 142.744C97.2011 142.516 98.9303 142.13 100.62 141.586C101.514 142.217 102.508 142.716 103.564 143.053L108.444 144.622C108.725 144.711 109.01 144.755 109.289 144.755C110.391 144.755 111.42 144.091 111.791 143.04C112.259 141.722 111.516 140.294 110.134 139.849ZM47.8506 143.279C46.7556 143.3 45.6688 143.227 44.5985 143.061C44.9631 142.109 45.157 141.097 45.157 140.067V139.048C46.0609 139.357 47.0059 139.512 47.9496 139.512C48.8947 139.512 49.8384 139.357 50.7422 139.048V140.067C50.7422 141.043 50.9114 141.998 51.232 142.897C50.1218 143.126 48.991 143.254 47.8506 143.279ZM39.9735 122.716L44.7278 120.35L55.9271 123.788V128.688C55.9271 129.7 55.3645 130.656 54.4607 131.182L49.5344 134.046C48.5577 134.613 47.343 134.613 46.3663 134.046L41.44 131.182C40.5362 130.656 39.9735 129.7 39.9735 128.688V122.716ZM43.8914 112.364H52.0092C54.169 112.364 55.9271 114.044 55.9271 116.11V118.496L45.2946 115.232C44.6219 115.025 43.8887 115.085 43.2628 115.398L39.9735 117.034V116.11C39.9735 114.044 41.7316 112.364 43.8914 112.364ZM47.7901 163.692L45.7747 161.549L47.8217 154.653L50.0682 161.502L47.7901 163.692ZM92.1538 137.955C90.5168 137.988 88.8907 137.849 87.2936 137.549C87.8961 136.258 88.2194 134.851 88.2194 133.417V131.295C89.5043 131.864 90.8841 132.153 92.2639 132.153C93.645 132.153 95.0234 131.863 96.3097 131.294V133.417C96.3097 134.775 96.5917 136.097 97.1255 137.321C95.4967 137.707 93.8349 137.921 92.1538 137.955ZM87.2661 98.7327H97.2617C100.256 98.7327 102.694 101.062 102.694 103.927V107.663L88.8068 103.399C88.1341 103.193 87.4023 103.252 86.775 103.565L81.8336 106.025V103.927C81.8336 101.062 84.2713 98.7327 87.2661 98.7327ZM81.8336 111.707L88.2401 108.517L102.694 112.954V119.412C102.694 120.86 101.891 122.227 100.596 122.978L94.5323 126.504C93.1333 127.317 91.3944 127.317 89.9954 126.504L83.9315 122.978C82.6384 122.227 81.8336 120.859 81.8336 119.412V111.707ZM92.0451 163.354L88.9072 160.017L92.0754 149.338L95.5641 159.97L92.0451 163.354Z" fill="#FF8A00"/>
<path d="M181.413 124.438L121.003 66.8286C120.998 66.8247 120.994 66.8221 120.99 66.8182L99.6564 46.473C98.2656 45.1457 96.5446 44.2486 94.6724 43.8459V27.9719H123.659C125.215 27.9719 126.575 27.0761 127.124 25.6885C127.675 24.3008 127.276 22.7702 126.108 21.7905L119.236 16.0196L126.108 10.2486C127.276 9.26889 127.675 7.73829 127.124 6.35064C126.575 4.963 125.215 4.06588 123.659 4.06588H94.6724V3.18975C94.6724 1.79817 93.4893 0.671524 92.0311 0.671524C90.5729 0.671524 89.3898 1.79817 89.3898 3.18975V44.0217C87.7927 44.4834 86.3303 45.3149 85.117 46.473L75.7226 55.4324C74.6909 56.4161 74.6909 58.0096 75.7226 58.9933C76.7544 59.9757 78.4272 59.977 79.4575 58.992L88.8519 50.0339C89.7956 49.1329 91.0516 48.6371 92.386 48.6371C93.7218 48.6371 94.9764 49.1329 95.9215 50.0339L114.973 68.2032L106.792 73.3485L96.9972 66.8129C96.0604 66.1873 94.8072 66.2083 93.8937 66.8641L84.9217 73.3065L76.3128 67.8268C75.5947 67.3703 74.6881 67.2759 73.8833 67.5762L68.2583 69.6721L71.0839 66.9769C72.1156 65.9932 72.1156 64.3996 71.0839 63.4159C70.0521 62.4336 68.3793 62.4336 67.3489 63.4159L55.6379 74.5853C55.6324 74.5892 55.6283 74.5932 55.6242 74.5984L2.64878 125.116C1.61704 126.1 1.61841 127.695 2.64878 128.677C3.16466 129.169 3.84148 129.414 4.51693 129.414C5.19376 129.414 5.86921 129.169 6.38508 128.677L58.9519 78.5476L74.5244 72.7452L83.546 78.4885C84.4801 79.0827 85.7058 79.0499 86.6013 78.4059L95.539 71.9884L105.232 78.4571C106.119 79.0499 107.297 79.0656 108.202 78.4964L118.785 71.8389L177.677 127.999C178.193 128.491 178.868 128.738 179.545 128.738C180.221 128.738 180.896 128.491 181.412 128C182.444 127.017 182.444 125.422 181.413 124.438ZM119.48 9.10232L114.399 13.3689C113.601 14.0391 113.145 15.0057 113.145 16.0196C113.145 17.0334 113.601 18 114.399 18.6703L119.48 22.9355H94.6724V9.10232H119.48Z" fill="#FF8A00"/>
</g>
<path d="M4.55855 227.442H2.87105V214.645H4.55855V227.442ZM7.51167 218.248L6.58882 217.616C7.13374 216.854 7.41499 216.051 7.43257 215.207V213.942H9.04097V215.084C9.03511 215.67 8.88863 216.256 8.60152 216.842C8.32027 217.422 7.95699 217.891 7.51167 218.248ZM12.3544 217.932L12.3984 218.987C13.0957 218.166 14.0361 217.756 15.2197 217.756C16.5498 217.756 17.455 218.266 17.9355 219.286C18.2519 218.829 18.6621 218.459 19.166 218.178C19.6757 217.897 20.2763 217.756 20.9677 217.756C23.0537 217.756 24.1142 218.861 24.1494 221.07V227.442H22.5234V221.166C22.5234 220.487 22.3681 219.98 22.0576 219.646C21.747 219.306 21.2255 219.136 20.4931 219.136C19.8896 219.136 19.3886 219.318 18.9902 219.681C18.5918 220.039 18.3603 220.522 18.2959 221.131V227.442H16.6611V221.21C16.6611 219.828 15.9843 219.136 14.6308 219.136C13.5644 219.136 12.8349 219.59 12.4423 220.498V227.442H10.8164V217.932H12.3544ZM36.9462 227.442C36.8525 227.254 36.7763 226.92 36.7177 226.44C35.9619 227.225 35.0595 227.618 34.0107 227.618C33.0732 227.618 32.3027 227.354 31.6992 226.827C31.1015 226.293 30.8027 225.62 30.8027 224.805C30.8027 223.815 31.1777 223.047 31.9277 222.502C32.6835 221.952 33.7441 221.676 35.1093 221.676H36.6914V220.929C36.6914 220.361 36.5214 219.91 36.1816 219.576C35.8418 219.236 35.3408 219.066 34.6787 219.066C34.0986 219.066 33.6123 219.212 33.2197 219.505C32.8271 219.798 32.6308 220.153 32.6308 220.569H30.996C30.996 220.094 31.163 219.637 31.497 219.198C31.8369 218.752 32.2939 218.401 32.8681 218.143C33.4482 217.885 34.0839 217.756 34.7753 217.756C35.871 217.756 36.7294 218.032 37.3505 218.582C37.9716 219.127 38.2939 219.88 38.3173 220.841V225.218C38.3173 226.091 38.4287 226.786 38.6513 227.301V227.442H36.9462ZM34.248 226.203C34.7578 226.203 35.2412 226.071 35.6982 225.807C36.1552 225.543 36.4863 225.201 36.6914 224.779V222.828H35.4169C33.4248 222.828 32.4287 223.411 32.4287 224.577C32.4287 225.086 32.5986 225.485 32.9384 225.772C33.2783 226.059 33.7148 226.203 34.248 226.203ZM47.5371 215.629V217.932H49.3125V219.189H47.5371V225.086C47.5371 225.467 47.6162 225.754 47.7744 225.948C47.9326 226.135 48.2021 226.229 48.583 226.229C48.7705 226.229 49.0283 226.194 49.3564 226.123V227.442C48.9287 227.559 48.5126 227.618 48.1084 227.618C47.3818 227.618 46.8339 227.398 46.4648 226.958C46.0957 226.519 45.9111 225.895 45.9111 225.086V219.189H44.1796V217.932H45.9111V215.629H47.5371ZM55.166 227.618C53.8769 227.618 52.8281 227.196 52.0195 226.352C51.2109 225.502 50.8066 224.369 50.8066 222.951V222.652C50.8066 221.708 50.9853 220.868 51.3427 220.129C51.706 219.385 52.2099 218.805 52.8544 218.389C53.5048 217.967 54.208 217.756 54.9638 217.756C56.2001 217.756 57.1611 218.164 57.8466 218.978C58.5322 219.792 58.875 220.958 58.875 222.476V223.153H52.4326C52.456 224.09 52.7285 224.849 53.25 225.429C53.7773 226.003 54.4453 226.29 55.2539 226.29C55.8281 226.29 56.3144 226.173 56.7128 225.939C57.1113 225.705 57.4599 225.394 57.7587 225.007L58.7519 225.781C57.955 227.005 56.7597 227.618 55.166 227.618ZM54.9638 219.092C54.3076 219.092 53.7568 219.332 53.3115 219.813C52.8662 220.288 52.5908 220.956 52.4853 221.817H57.249V221.694C57.2021 220.868 56.9794 220.229 56.581 219.778C56.1826 219.321 55.6435 219.092 54.9638 219.092ZM66.6357 227.442C66.5419 227.254 66.4658 226.92 66.4072 226.44C65.6513 227.225 64.749 227.618 63.7001 227.618C62.7626 227.618 61.9921 227.354 61.3886 226.827C60.791 226.293 60.4921 225.62 60.4921 224.805C60.4921 223.815 60.8671 223.047 61.6171 222.502C62.373 221.952 63.4335 221.676 64.7988 221.676H66.3808V220.929C66.3808 220.361 66.2109 219.91 65.871 219.576C65.5312 219.236 65.0302 219.066 64.3681 219.066C63.788 219.066 63.3017 219.212 62.9091 219.505C62.5166 219.798 62.3203 220.153 62.3203 220.569H60.6855C60.6855 220.094 60.8525 219.637 61.1865 219.198C61.5263 218.752 61.9834 218.401 62.5576 218.143C63.1376 217.885 63.7734 217.756 64.4648 217.756C65.5605 217.756 66.4189 218.032 67.04 218.582C67.6611 219.127 67.9834 219.88 68.0068 220.841V225.218C68.0068 226.091 68.1181 226.786 68.3408 227.301V227.442H66.6357ZM63.9375 226.203C64.4472 226.203 64.9306 226.071 65.3876 225.807C65.8447 225.543 66.1757 225.201 66.3808 224.779V222.828H65.1064C63.1142 222.828 62.1181 223.411 62.1181 224.577C62.1181 225.086 62.288 225.485 62.6279 225.772C62.9677 226.059 63.4043 226.203 63.9375 226.203ZM72.0849 217.932L72.1289 218.987C72.8261 218.166 73.7666 217.756 74.9501 217.756C76.2802 217.756 77.1855 218.266 77.666 219.286C77.9824 218.829 78.3925 218.459 78.8964 218.178C79.4062 217.897 80.0068 217.756 80.6982 217.756C82.7841 217.756 83.8447 218.861 83.8798 221.07V227.442H82.2539V221.166C82.2539 220.487 82.0986 219.98 81.788 219.646C81.4775 219.306 80.956 219.136 80.2236 219.136C79.6201 219.136 79.1191 219.318 78.7207 219.681C78.3222 220.039 78.0908 220.522 78.0263 221.131V227.442H76.3916V221.21C76.3916 219.828 75.7148 219.136 74.3613 219.136C73.2949 219.136 72.5654 219.59 72.1728 220.498V227.442H70.5468V217.932H72.0849ZM98.8388 222.792C98.8388 224.24 98.5078 225.406 97.8457 226.29C97.1835 227.175 96.2871 227.618 95.1562 227.618C94.0019 227.618 93.0937 227.251 92.4316 226.519V231.098H90.8056V217.932H92.291L92.3701 218.987C93.0322 218.166 93.9521 217.756 95.1298 217.756C96.2724 217.756 97.1748 218.187 97.8369 219.048C98.5048 219.91 98.8388 221.108 98.8388 222.643V222.792ZM97.2128 222.608C97.2128 221.536 96.9843 220.689 96.5273 220.068C96.0703 219.447 95.4433 219.136 94.6464 219.136C93.6621 219.136 92.9238 219.573 92.4316 220.446V224.99C92.9179 225.857 93.6621 226.29 94.664 226.29C95.4433 226.29 96.0615 225.983 96.5185 225.368C96.9814 224.747 97.2128 223.827 97.2128 222.608ZM102.68 227.442H101.054V213.942H102.68V227.442ZM111.161 227.442C111.067 227.254 110.991 226.92 110.933 226.44C110.177 227.225 109.274 227.618 108.226 227.618C107.288 227.618 106.518 227.354 105.914 226.827C105.316 226.293 105.018 225.62 105.018 224.805C105.018 223.815 105.393 223.047 106.143 222.502C106.898 221.952 107.959 221.676 109.324 221.676H110.906V220.929C110.906 220.361 110.736 219.91 110.396 219.576C110.057 219.236 109.556 219.066 108.894 219.066C108.313 219.066 107.827 219.212 107.435 219.505C107.042 219.798 106.846 220.153 106.846 220.569H105.211C105.211 220.094 105.378 219.637 105.712 219.198C106.052 218.752 106.509 218.401 107.083 218.143C107.663 217.885 108.299 217.756 108.99 217.756C110.086 217.756 110.944 218.032 111.565 218.582C112.186 219.127 112.509 219.88 112.532 220.841V225.218C112.532 226.091 112.644 226.786 112.866 227.301V227.442H111.161ZM108.463 226.203C108.973 226.203 109.456 226.071 109.913 225.807C110.37 225.543 110.701 225.201 110.906 224.779V222.828H109.632C107.64 222.828 106.644 223.411 106.644 224.577C106.644 225.086 106.813 225.485 107.153 225.772C107.493 226.059 107.93 226.203 108.463 226.203ZM118.052 225.06L120.267 217.932H122.007L118.184 228.91C117.592 230.492 116.651 231.283 115.362 231.283L115.055 231.256L114.448 231.142V229.824L114.888 229.859C115.438 229.859 115.866 229.747 116.171 229.525C116.481 229.302 116.736 228.895 116.936 228.303L117.296 227.336L113.903 217.932H115.679L118.052 225.06ZM127.289 227.618C126 227.618 124.951 227.196 124.143 226.352C123.334 225.502 122.93 224.369 122.93 222.951V222.652C122.93 221.708 123.108 220.868 123.466 220.129C123.829 219.385 124.333 218.805 124.977 218.389C125.628 217.967 126.331 217.756 127.087 217.756C128.323 217.756 129.284 218.164 129.97 218.978C130.655 219.792 130.998 220.958 130.998 222.476V223.153H124.556C124.579 224.09 124.852 224.849 125.373 225.429C125.9 226.003 126.568 226.29 127.377 226.29C127.951 226.29 128.437 226.173 128.836 225.939C129.234 225.705 129.583 225.394 129.882 225.007L130.875 225.781C130.078 227.005 128.883 227.618 127.289 227.618ZM127.087 219.092C126.431 219.092 125.88 219.332 125.435 219.813C124.989 220.288 124.714 220.956 124.608 221.817H129.372V221.694C129.325 220.868 129.102 220.229 128.704 219.778C128.306 219.321 127.767 219.092 127.087 219.092ZM137.484 219.391C137.238 219.35 136.972 219.33 136.685 219.33C135.618 219.33 134.894 219.784 134.514 220.692V227.442H132.888V217.932H134.47L134.496 219.031C135.029 218.181 135.785 217.756 136.764 217.756C137.08 217.756 137.32 217.797 137.484 217.879V219.391ZM137.845 229.991L136.922 229.358C137.473 228.59 137.76 227.799 137.783 226.985V225.517H139.374V226.791C139.374 227.383 139.227 227.975 138.935 228.567C138.647 229.159 138.284 229.633 137.845 229.991ZM147.662 227.442H146.036V217.932H147.662V227.442ZM145.904 215.41C145.904 215.146 145.983 214.923 146.142 214.742C146.306 214.56 146.546 214.469 146.862 214.469C147.179 214.469 147.419 214.56 147.583 214.742C147.747 214.923 147.829 215.146 147.829 215.41C147.829 215.673 147.747 215.893 147.583 216.069C147.419 216.245 147.179 216.332 146.862 216.332C146.546 216.332 146.306 216.245 146.142 216.069C145.983 215.893 145.904 215.673 145.904 215.41ZM156.504 227.442H154.878V213.942H156.504V227.442ZM160.881 227.442H159.255V217.932H160.881V227.442ZM159.123 215.41C159.123 215.146 159.202 214.923 159.36 214.742C159.524 214.56 159.765 214.469 160.081 214.469C160.397 214.469 160.638 214.56 160.802 214.742C160.966 214.923 161.048 215.146 161.048 215.41C161.048 215.673 160.966 215.893 160.802 216.069C160.638 216.245 160.397 216.332 160.081 216.332C159.765 216.332 159.524 216.245 159.36 216.069C159.202 215.893 159.123 215.673 159.123 215.41ZM166.145 223.039L165.126 224.102V227.442H163.5V213.942H165.126V222.107L165.996 221.061L168.958 217.932H170.936L167.235 221.905L171.366 227.442H169.459L166.145 223.039ZM176.385 227.618C175.096 227.618 174.047 227.196 173.238 226.352C172.43 225.502 172.025 224.369 172.025 222.951V222.652C172.025 221.708 172.204 220.868 172.561 220.129C172.925 219.385 173.429 218.805 174.073 218.389C174.724 217.967 175.427 217.756 176.183 217.756C177.419 217.756 178.38 218.164 179.065 218.978C179.751 219.792 180.094 220.958 180.094 222.476V223.153H173.651C173.675 224.09 173.947 224.849 174.469 225.429C174.996 226.003 175.664 226.29 176.473 226.29C177.047 226.29 177.533 226.173 177.932 225.939C178.33 225.705 178.679 225.394 178.977 225.007L179.971 225.781C179.174 227.005 177.978 227.618 176.385 227.618ZM176.183 219.092C175.526 219.092 174.976 219.332 174.53 219.813C174.085 220.288 173.81 220.956 173.704 221.817H178.468V221.694C178.421 220.868 178.198 220.229 177.8 219.778C177.401 219.321 176.862 219.092 176.183 219.092ZM9.41011 248.442H7.78413V238.932H9.41011V248.442ZM7.6523 236.41C7.6523 236.146 7.7314 235.923 7.8896 235.742C8.05367 235.56 8.2939 235.469 8.61031 235.469C8.92671 235.469 9.16695 235.56 9.33101 235.742C9.49507 235.923 9.5771 236.146 9.5771 236.41C9.5771 236.673 9.49507 236.893 9.33101 237.069C9.16695 237.245 8.92671 237.332 8.61031 237.332C8.2939 237.332 8.05367 237.245 7.8896 237.069C7.7314 236.893 7.6523 236.673 7.6523 236.41ZM11.625 243.608C11.625 242.149 11.9707 240.977 12.6621 240.092C13.3535 239.202 14.2587 238.756 15.3779 238.756C16.4912 238.756 17.373 239.137 18.0234 239.899V234.942H19.6494V248.442H18.1552L18.0761 247.422C17.4257 248.219 16.5205 248.618 15.3603 248.618C14.2587 248.618 13.3593 248.166 12.6621 247.264C11.9707 246.362 11.625 245.184 11.625 243.731V243.608ZM13.2509 243.792C13.2509 244.871 13.4736 245.714 13.9189 246.324C14.3642 246.933 14.9794 247.238 15.7646 247.238C16.7959 247.238 17.5488 246.775 18.0234 245.849V241.481C17.5371 240.584 16.79 240.136 15.7822 240.136C14.9853 240.136 14.3642 240.444 13.9189 241.059C13.4736 241.674 13.2509 242.585 13.2509 243.792ZM26.1269 248.618C24.8378 248.618 23.789 248.196 22.9804 247.352C22.1718 246.502 21.7675 245.369 21.7675 243.951V243.652C21.7675 242.708 21.9462 241.868 22.3037 241.129C22.6669 240.385 23.1709 239.805 23.8154 239.389C24.4658 238.967 25.1689 238.756 25.9248 238.756C27.1611 238.756 28.122 239.164 28.8076 239.978C29.4931 240.792 29.8359 241.958 29.8359 243.476V244.153H23.3935C23.4169 245.09 23.6894 245.849 24.2109 246.429C24.7382 247.003 25.4062 247.29 26.2148 247.29C26.789 247.29 27.2753 247.173 27.6738 246.939C28.0722 246.705 28.4209 246.394 28.7197 246.007L29.7128 246.781C28.916 248.005 27.7207 248.618 26.1269 248.618ZM25.9248 240.092C25.2685 240.092 24.7177 240.332 24.2724 240.813C23.8271 241.288 23.5517 241.956 23.4462 242.817H28.2099V242.694C28.163 241.868 27.9404 241.229 27.5419 240.778C27.1435 240.321 26.6044 240.092 25.9248 240.092ZM37.5966 248.442C37.5029 248.254 37.4267 247.92 37.3681 247.44C36.6123 248.225 35.7099 248.618 34.6611 248.618C33.7236 248.618 32.9531 248.354 32.3496 247.827C31.7519 247.293 31.4531 246.62 31.4531 245.805C31.4531 244.815 31.8281 244.047 32.5781 243.502C33.3339 242.952 34.3945 242.676 35.7597 242.676H37.3418V241.929C37.3418 241.361 37.1718 240.91 36.832 240.576C36.4921 240.236 35.9912 240.066 35.3291 240.066C34.749 240.066 34.2626 240.212 33.8701 240.505C33.4775 240.798 33.2812 241.153 33.2812 241.569H31.6464C31.6464 241.094 31.8134 240.637 32.1474 240.198C32.4873 239.752 32.9443 239.401 33.5185 239.143C34.0986 238.885 34.7343 238.756 35.4257 238.756C36.5214 238.756 37.3798 239.032 38.0009 239.582C38.622 240.127 38.9443 240.88 38.9677 241.841V246.218C38.9677 247.091 39.0791 247.786 39.3017 248.301V248.442H37.5966ZM34.8984 247.203C35.4082 247.203 35.8916 247.071 36.3486 246.807C36.8056 246.543 37.1367 246.201 37.3418 245.779V243.828H36.0673C34.0751 243.828 33.0791 244.411 33.0791 245.577C33.0791 246.086 33.249 246.485 33.5888 246.772C33.9287 247.059 34.3652 247.203 34.8984 247.203ZM47.0537 245.919C47.0537 245.48 46.8867 245.14 46.5527 244.9C46.2246 244.654 45.6474 244.443 44.8212 244.267C44.0009 244.091 43.3476 243.88 42.8613 243.634C42.3808 243.388 42.0234 243.095 41.789 242.755C41.5605 242.415 41.4462 242.011 41.4462 241.542C41.4462 240.763 41.7744 240.104 42.4306 239.565C43.0927 239.026 43.9365 238.756 44.9619 238.756C46.04 238.756 46.913 239.035 47.581 239.591C48.2548 240.148 48.5918 240.86 48.5918 241.727H46.957C46.957 241.282 46.7666 240.898 46.3857 240.576C46.0107 240.253 45.5361 240.092 44.9619 240.092C44.3701 240.092 43.9072 240.221 43.5732 240.479C43.2392 240.737 43.0722 241.074 43.0722 241.49C43.0722 241.882 43.2275 242.178 43.538 242.377C43.8486 242.577 44.4082 242.767 45.2168 242.949C46.0312 243.13 46.6904 243.347 47.1943 243.599C47.6982 243.851 48.0703 244.156 48.3105 244.513C48.5566 244.865 48.6796 245.295 48.6796 245.805C48.6796 246.655 48.3398 247.337 47.6601 247.853C46.9804 248.363 46.0986 248.618 45.0146 248.618C44.2529 248.618 43.5791 248.483 42.9931 248.213C42.4072 247.944 41.9472 247.569 41.6132 247.088C41.2851 246.602 41.121 246.078 41.121 245.515H42.747C42.7763 246.06 42.9931 246.494 43.3974 246.816C43.8076 247.132 44.3466 247.29 45.0146 247.29C45.6298 247.29 46.122 247.167 46.4912 246.921C46.8662 246.669 47.0537 246.335 47.0537 245.919ZM60.7998 245.919C60.7998 245.48 60.6328 245.14 60.2988 244.9C59.9707 244.654 59.3935 244.443 58.5673 244.267C57.747 244.091 57.0937 243.88 56.6074 243.634C56.1269 243.388 55.7695 243.095 55.5351 242.755C55.3066 242.415 55.1923 242.011 55.1923 241.542C55.1923 240.763 55.5205 240.104 56.1767 239.565C56.8388 239.026 57.6826 238.756 58.708 238.756C59.7861 238.756 60.6591 239.035 61.3271 239.591C62.0009 240.148 62.3378 240.86 62.3378 241.727H60.7031C60.7031 241.282 60.5126 240.898 60.1318 240.576C59.7568 240.253 59.2822 240.092 58.708 240.092C58.1162 240.092 57.6533 240.221 57.3193 240.479C56.9853 240.737 56.8183 241.074 56.8183 241.49C56.8183 241.882 56.9736 242.178 57.2841 242.377C57.5947 242.577 58.1543 242.767 58.9628 242.949C59.7773 243.13 60.4365 243.347 60.9404 243.599C61.4443 243.851 61.8164 244.156 62.0566 244.513C62.3027 244.865 62.4257 245.295 62.4257 245.805C62.4257 246.655 62.0859 247.337 61.4062 247.853C60.7265 248.363 59.8447 248.618 58.7607 248.618C57.999 248.618 57.3251 248.483 56.7392 248.213C56.1533 247.944 55.6933 247.569 55.3593 247.088C55.0312 246.602 54.8671 246.078 54.8671 245.515H56.4931C56.5224 246.06 56.7392 246.494 57.1435 246.816C57.5537 247.132 58.0927 247.29 58.7607 247.29C59.3759 247.29 59.8681 247.167 60.2373 246.921C60.6123 246.669 60.7998 246.335 60.7998 245.919ZM66.1699 240.083C66.8906 239.199 67.8281 238.756 68.9824 238.756C70.9921 238.756 72.0058 239.89 72.0234 242.158V248.442H70.3974V242.149C70.3916 241.463 70.2334 240.956 69.9228 240.628C69.6181 240.3 69.1406 240.136 68.4902 240.136C67.9628 240.136 67.5 240.277 67.1015 240.558C66.7031 240.839 66.3925 241.208 66.1699 241.665V248.442H64.5439V234.942H66.1699V240.083ZM80.3291 248.442C80.2353 248.254 80.1591 247.92 80.1005 247.44C79.3447 248.225 78.4423 248.618 77.3935 248.618C76.456 248.618 75.6855 248.354 75.082 247.827C74.4843 247.293 74.1855 246.62 74.1855 245.805C74.1855 244.815 74.5605 244.047 75.3105 243.502C76.0664 242.952 77.1269 242.676 78.4921 242.676H80.0742V241.929C80.0742 241.361 79.9043 240.91 79.5644 240.576C79.2246 240.236 78.7236 240.066 78.0615 240.066C77.4814 240.066 76.9951 240.212 76.6025 240.505C76.2099 240.798 76.0136 241.153 76.0136 241.569H74.3789C74.3789 241.094 74.5459 240.637 74.8798 240.198C75.2197 239.752 75.6767 239.401 76.2509 239.143C76.831 238.885 77.4668 238.756 78.1582 238.756C79.2539 238.756 80.1123 239.032 80.7334 239.582C81.3544 240.127 81.6767 240.88 81.7001 241.841V246.218C81.7001 247.091 81.8115 247.786 82.0341 248.301V248.442H80.3291ZM77.6308 247.203C78.1406 247.203 78.624 247.071 79.081 246.807C79.538 246.543 79.8691 246.201 80.0742 245.779V243.828H78.7998C76.8076 243.828 75.8115 244.411 75.8115 245.577C75.8115 246.086 75.9814 246.485 76.3212 246.772C76.6611 247.059 77.0976 247.203 77.6308 247.203ZM88.8457 240.391C88.5996 240.35 88.333 240.33 88.0459 240.33C86.9794 240.33 86.2558 240.784 85.875 241.692V248.442H84.249V238.932H85.831L85.8574 240.031C86.3906 239.181 87.1464 238.756 88.125 238.756C88.4414 238.756 88.6816 238.797 88.8457 238.879V240.391ZM94.1191 248.618C92.83 248.618 91.7812 248.196 90.9726 247.352C90.164 246.502 89.7597 245.369 89.7597 243.951V243.652C89.7597 242.708 89.9384 241.868 90.2959 241.129C90.6591 240.385 91.163 239.805 91.8076 239.389C92.458 238.967 93.1611 238.756 93.9169 238.756C95.1533 238.756 96.1142 239.164 96.7998 239.978C97.4853 240.792 97.8281 241.958 97.8281 243.476V244.153H91.3857C91.4091 245.09 91.6816 245.849 92.2031 246.429C92.7304 247.003 93.3984 247.29 94.207 247.29C94.7812 247.29 95.2675 247.173 95.666 246.939C96.0644 246.705 96.413 246.394 96.7119 246.007L97.705 246.781C96.9082 248.005 95.7128 248.618 94.1191 248.618ZM93.9169 240.092C93.2607 240.092 92.7099 240.332 92.2646 240.813C91.8193 241.288 91.5439 241.956 91.4384 242.817H96.2021V242.694C96.1552 241.868 95.9326 241.229 95.5341 240.778C95.1357 240.321 94.5966 240.092 93.9169 240.092ZM99.3222 243.608C99.3222 242.149 99.6679 240.977 100.359 240.092C101.051 239.202 101.956 238.756 103.075 238.756C104.188 238.756 105.07 239.137 105.721 239.899V234.942H107.347V248.442H105.852L105.773 247.422C105.123 248.219 104.218 248.618 103.058 248.618C101.956 248.618 101.057 248.166 100.359 247.264C99.6679 246.362 99.3222 245.184 99.3222 243.731V243.608ZM100.948 243.792C100.948 244.871 101.171 245.714 101.616 246.324C102.061 246.933 102.677 247.238 103.462 247.238C104.493 247.238 105.246 246.775 105.721 245.849V241.481C105.234 240.584 104.487 240.136 103.479 240.136C102.683 240.136 102.061 240.444 101.616 241.059C101.171 241.674 100.948 242.585 100.948 243.792ZM122.763 246.201L124.591 238.932H126.217L123.448 248.442H122.13L119.818 241.235L117.568 248.442H116.25L113.49 238.932H115.107L116.979 246.051L119.194 238.932H120.504L122.763 246.201ZM129.644 248.442H128.019V238.932H129.644V248.442ZM127.887 236.41C127.887 236.146 127.966 235.923 128.124 235.742C128.288 235.56 128.528 235.469 128.845 235.469C129.161 235.469 129.401 235.56 129.565 235.742C129.729 235.923 129.811 236.146 129.811 236.41C129.811 236.673 129.729 236.893 129.565 237.069C129.401 237.245 129.161 237.332 128.845 237.332C128.528 237.332 128.288 237.245 128.124 237.069C127.966 236.893 127.887 236.673 127.887 236.41ZM134.461 236.629V238.932H136.236V240.189H134.461V246.086C134.461 246.467 134.54 246.754 134.698 246.948C134.856 247.135 135.126 247.229 135.507 247.229C135.694 247.229 135.952 247.194 136.28 247.123V248.442C135.852 248.559 135.436 248.618 135.032 248.618C134.306 248.618 133.758 248.398 133.389 247.958C133.019 247.519 132.835 246.895 132.835 246.086V240.189H131.103V238.932H132.835V236.629H134.461ZM139.769 240.083C140.49 239.199 141.428 238.756 142.582 238.756C144.592 238.756 145.605 239.89 145.623 242.158V248.442H143.997V242.149C143.991 241.463 143.833 240.956 143.522 240.628C143.218 240.3 142.74 240.136 142.09 240.136C141.562 240.136 141.1 240.277 140.701 240.558C140.303 240.839 139.992 241.208 139.769 241.665V248.442H138.144V234.942H139.769V240.083ZM154.052 238.932L154.096 239.987C154.793 239.166 155.733 238.756 156.917 238.756C158.247 238.756 159.152 239.266 159.633 240.286C159.949 239.829 160.359 239.459 160.863 239.178C161.373 238.897 161.974 238.756 162.665 238.756C164.751 238.756 165.811 239.861 165.847 242.07V248.442H164.221V242.166C164.221 241.487 164.065 240.98 163.755 240.646C163.444 240.306 162.923 240.136 162.19 240.136C161.587 240.136 161.086 240.318 160.687 240.681C160.289 241.039 160.058 241.522 159.993 242.131V248.442H158.358V242.21C158.358 240.828 157.682 240.136 156.328 240.136C155.262 240.136 154.532 240.59 154.14 241.498V248.442H152.514V238.932H154.052ZM171.419 246.06L173.634 238.932H175.374L171.551 249.91C170.959 251.492 170.019 252.283 168.729 252.283L168.422 252.256L167.815 252.142V250.824L168.255 250.859C168.806 250.859 169.233 250.747 169.538 250.525C169.849 250.302 170.103 249.895 170.303 249.303L170.663 248.336L167.27 238.932H169.046L171.419 246.06ZM54.3222 268.29C54.9023 268.29 55.4091 268.115 55.8427 267.763C56.2763 267.412 56.5166 266.972 56.5634 266.445H58.1015C58.0722 266.99 57.8847 267.508 57.539 268C57.1933 268.493 56.7304 268.885 56.1503 269.178C55.5761 269.471 54.9668 269.618 54.3222 269.618C53.0273 269.618 51.996 269.187 51.2285 268.326C50.4668 267.458 50.0859 266.275 50.0859 264.775V264.502C50.0859 263.577 50.2558 262.753 50.5957 262.033C50.9355 261.312 51.4218 260.752 52.0546 260.354C52.6933 259.956 53.4462 259.756 54.3134 259.756C55.3798 259.756 56.2646 260.076 56.9677 260.714C57.6767 261.353 58.0546 262.182 58.1015 263.202H56.5634C56.5166 262.586 56.2822 262.082 55.8603 261.69C55.4443 261.291 54.9287 261.092 54.3134 261.092C53.4873 261.092 52.8457 261.391 52.3886 261.989C51.9375 262.581 51.7119 263.439 51.7119 264.564V264.872C51.7119 265.967 51.9375 266.811 52.3886 267.403C52.8398 267.995 53.4843 268.29 54.3222 268.29ZM59.499 264.599C59.499 263.667 59.6806 262.83 60.0439 262.085C60.413 261.341 60.9228 260.767 61.5732 260.363C62.2294 259.958 62.9765 259.756 63.8144 259.756C65.1093 259.756 66.1552 260.205 66.9521 261.101C67.7548 261.997 68.1562 263.19 68.1562 264.678V264.792C68.1562 265.718 67.9775 266.55 67.6201 267.289C67.2685 268.021 66.7617 268.592 66.0996 269.002C65.4433 269.413 64.6875 269.618 63.832 269.618C62.5429 269.618 61.497 269.169 60.6943 268.273C59.8974 267.376 59.499 266.19 59.499 264.713V264.599ZM61.1337 264.792C61.1337 265.847 61.3769 266.694 61.8632 267.332C62.3554 267.971 63.0117 268.29 63.832 268.29C64.6582 268.29 65.3144 267.968 65.8007 267.324C66.2871 266.673 66.5302 265.765 66.5302 264.599C66.5302 263.556 66.2812 262.712 65.7832 262.068C65.291 261.417 64.6347 261.092 63.8144 261.092C63.0117 261.092 62.3642 261.412 61.872 262.05C61.3798 262.689 61.1337 263.603 61.1337 264.792ZM78.6152 267.201L80.4433 259.932H82.0693L79.3007 269.442H77.9824L75.6709 262.235L73.4209 269.442H72.1025L69.3427 259.932H70.9599L72.832 267.051L75.0468 259.932H76.3564L78.6152 267.201ZM83.2998 264.599C83.2998 263.667 83.4814 262.83 83.8447 262.085C84.2138 261.341 84.7236 260.767 85.374 260.363C86.0302 259.958 86.7773 259.756 87.6152 259.756C88.9101 259.756 89.956 260.205 90.7529 261.101C91.5556 261.997 91.957 263.19 91.957 264.678V264.792C91.957 265.718 91.7783 266.55 91.4209 267.289C91.0693 268.021 90.5625 268.592 89.9003 269.002C89.2441 269.413 88.4882 269.618 87.6328 269.618C86.3437 269.618 85.2978 269.169 84.4951 268.273C83.6982 267.376 83.2998 266.19 83.2998 264.713V264.599ZM84.9345 264.792C84.9345 265.847 85.1777 266.694 85.664 267.332C86.1562 267.971 86.8125 268.29 87.6328 268.29C88.4589 268.29 89.1152 267.968 89.6015 267.324C90.0878 266.673 90.331 265.765 90.331 264.599C90.331 263.556 90.082 262.712 89.5839 262.068C89.0918 261.417 88.4355 261.092 87.6152 261.092C86.8125 261.092 86.165 261.412 85.6728 262.05C85.1806 262.689 84.9345 263.603 84.9345 264.792ZM98.5927 261.391C98.3466 261.35 98.08 261.33 97.7929 261.33C96.7265 261.33 96.0029 261.784 95.622 262.692V269.442H93.996V259.932H95.5781L95.6044 261.031C96.1376 260.181 96.8935 259.756 97.872 259.756C98.1884 259.756 98.4287 259.797 98.5927 259.879V261.391ZM102.75 265.039L101.73 266.102V269.442H100.104V255.942H101.73V264.107L102.601 263.061L105.562 259.932H107.54L103.84 263.905L107.971 269.442H106.063L102.75 265.039ZM112.989 269.618C111.7 269.618 110.651 269.196 109.843 268.352C109.034 267.502 108.63 266.369 108.63 264.951V264.652C108.63 263.708 108.809 262.868 109.166 262.129C109.529 261.385 110.033 260.805 110.678 260.389C111.328 259.967 112.031 259.756 112.787 259.756C114.023 259.756 114.984 260.164 115.67 260.978C116.355 261.792 116.698 262.958 116.698 264.476V265.153H110.256C110.279 266.09 110.552 266.849 111.073 267.429C111.601 268.003 112.269 268.29 113.077 268.29C113.651 268.29 114.138 268.173 114.536 267.939C114.935 267.705 115.283 267.394 115.582 267.007L116.575 267.781C115.778 269.005 114.583 269.618 112.989 269.618ZM112.787 261.092C112.131 261.092 111.58 261.332 111.135 261.813C110.689 262.288 110.414 262.956 110.309 263.817H115.072V263.694C115.025 262.868 114.803 262.229 114.404 261.778C114.006 261.321 113.467 261.092 112.787 261.092ZM123.185 261.391C122.938 261.35 122.672 261.33 122.385 261.33C121.318 261.33 120.595 261.784 120.214 262.692V269.442H118.588V259.932H120.17L120.196 261.031C120.729 260.181 121.485 259.756 122.464 259.756C122.78 259.756 123.02 259.797 123.185 259.879V261.391ZM130.225 266.919C130.225 266.48 130.058 266.14 129.724 265.9C129.395 265.654 128.818 265.443 127.992 265.267C127.172 265.091 126.519 264.88 126.032 264.634C125.552 264.388 125.194 264.095 124.96 263.755C124.731 263.415 124.617 263.011 124.617 262.542C124.617 261.763 124.945 261.104 125.602 260.565C126.264 260.026 127.107 259.756 128.133 259.756C129.211 259.756 130.084 260.035 130.752 260.591C131.426 261.148 131.763 261.86 131.763 262.727H130.128C130.128 262.282 129.937 261.898 129.557 261.576C129.182 261.253 128.707 261.092 128.133 261.092C127.541 261.092 127.078 261.221 126.744 261.479C126.41 261.737 126.243 262.074 126.243 262.49C126.243 262.882 126.398 263.178 126.709 263.377C127.019 263.577 127.579 263.767 128.388 263.949C129.202 264.13 129.861 264.347 130.365 264.599C130.869 264.851 131.241 265.156 131.481 265.513C131.727 265.865 131.851 266.295 131.851 266.805C131.851 267.655 131.511 268.337 130.831 268.853C130.151 269.363 129.269 269.618 128.186 269.618C127.424 269.618 126.75 269.483 126.164 269.213C125.578 268.944 125.118 268.569 124.784 268.088C124.456 267.602 124.292 267.078 124.292 266.515H125.918C125.947 267.06 126.164 267.494 126.568 267.816C126.978 268.132 127.518 268.29 128.186 268.29C128.801 268.29 129.293 268.167 129.662 267.921C130.037 267.669 130.225 267.335 130.225 266.919Z" fill="#B1B1B1"/>
<path d="M39.008 187.227H33.7814V201.442H30.2658V187.227H25.1096V184.379H39.008V187.227ZM45.5822 201.676C43.7228 201.676 42.2072 201.106 41.0353 199.965C39.8713 198.825 39.2893 197.305 39.2893 195.407V195.079C39.2893 193.805 39.5353 192.668 40.0275 191.668C40.5197 190.661 41.215 189.887 42.1135 189.348C43.0197 188.801 44.051 188.528 45.2072 188.528C46.9416 188.528 48.3049 189.075 49.2971 190.168C50.2971 191.262 50.7971 192.813 50.7971 194.821V196.204H42.7228C42.8322 197.032 43.1603 197.696 43.7072 198.196C44.2619 198.696 44.9611 198.946 45.8049 198.946C47.1096 198.946 48.1291 198.473 48.8635 197.528L50.5275 199.391C50.0197 200.11 49.3322 200.672 48.465 201.079C47.5978 201.477 46.6369 201.676 45.5822 201.676ZM45.1955 191.27C44.5236 191.27 43.9768 191.497 43.5549 191.95C43.1408 192.403 42.8752 193.051 42.758 193.895H47.4689V193.625C47.4533 192.875 47.2502 192.297 46.8596 191.891C46.4689 191.477 45.9143 191.27 45.1955 191.27ZM60.0783 201.442C59.9221 201.137 59.8088 200.758 59.7385 200.305C58.9182 201.219 57.8518 201.676 56.5393 201.676C55.2971 201.676 54.2658 201.317 53.4455 200.598C52.633 199.879 52.2268 198.973 52.2268 197.879C52.2268 196.536 52.7228 195.504 53.715 194.786C54.715 194.067 56.1564 193.704 58.0393 193.696H59.5978V192.969C59.5978 192.383 59.4455 191.914 59.1408 191.563C58.8439 191.211 58.3713 191.036 57.7228 191.036C57.1525 191.036 56.7033 191.172 56.3752 191.446C56.0549 191.719 55.8947 192.094 55.8947 192.571H52.508C52.508 191.836 52.7346 191.157 53.1877 190.532C53.6408 189.907 54.2814 189.418 55.1096 189.067C55.9377 188.707 56.8674 188.528 57.8986 188.528C59.4611 188.528 60.6994 188.922 61.6135 189.711C62.5353 190.493 62.9963 191.594 62.9963 193.016V198.512C63.0041 199.715 63.1721 200.625 63.5002 201.243V201.442H60.0783ZM57.2775 199.086C57.7775 199.086 58.2385 198.977 58.6603 198.758C59.0822 198.532 59.3947 198.231 59.5978 197.856V195.676H58.3322C56.6369 195.676 55.7346 196.262 55.6252 197.434L55.6135 197.633C55.6135 198.055 55.7619 198.403 56.0588 198.676C56.3557 198.95 56.7619 199.086 57.2775 199.086ZM68.7736 188.762L68.8791 190.18C69.7775 189.079 70.9924 188.528 72.5236 188.528C74.1564 188.528 75.2775 189.172 75.8869 190.461C76.7775 189.172 78.0471 188.528 79.6955 188.528C81.0705 188.528 82.0939 188.93 82.7658 189.735C83.4377 190.532 83.7736 191.735 83.7736 193.344V201.442H80.3752V193.356C80.3752 192.637 80.2346 192.114 79.9533 191.786C79.6721 191.45 79.176 191.282 78.465 191.282C77.4494 191.282 76.7463 191.766 76.3557 192.735L76.3674 201.442H72.9807V193.368C72.9807 192.633 72.8361 192.102 72.5471 191.774C72.258 191.446 71.7658 191.282 71.0705 191.282C70.1096 191.282 69.4143 191.68 68.9846 192.477V201.442H65.5978V188.762H68.7736ZM97.4143 196.836L99.0783 188.762H102.348L99.1135 201.442H96.2775L93.8752 193.461L91.4728 201.442H88.6486L85.4143 188.762H88.6838L90.3361 196.825L92.6564 188.762H95.1057L97.4143 196.836ZM103.508 194.985C103.508 193.727 103.75 192.606 104.235 191.622C104.719 190.637 105.414 189.875 106.321 189.336C107.235 188.797 108.293 188.528 109.496 188.528C111.207 188.528 112.602 189.051 113.68 190.098C114.766 191.145 115.371 192.567 115.496 194.364L115.52 195.231C115.52 197.176 114.977 198.739 113.891 199.918C112.805 201.09 111.348 201.676 109.52 201.676C107.692 201.676 106.231 201.09 105.137 199.918C104.051 198.747 103.508 197.153 103.508 195.137V194.985ZM106.895 195.231C106.895 196.434 107.121 197.356 107.574 197.997C108.028 198.629 108.676 198.946 109.52 198.946C110.34 198.946 110.981 198.633 111.442 198.008C111.903 197.375 112.133 196.368 112.133 194.985C112.133 193.805 111.903 192.891 111.442 192.243C110.981 191.594 110.332 191.27 109.496 191.27C108.668 191.27 108.028 191.594 107.574 192.243C107.121 192.883 106.895 193.879 106.895 195.231ZM124.731 191.938C124.27 191.875 123.863 191.844 123.512 191.844C122.231 191.844 121.391 192.278 120.992 193.145V201.442H117.606V188.762H120.805L120.899 190.274C121.578 189.11 122.52 188.528 123.723 188.528C124.098 188.528 124.449 188.579 124.778 188.68L124.731 191.938ZM130.977 196.356L129.758 197.575V201.442H126.371V183.442H129.758V193.414L130.414 192.571L133.66 188.762H137.727L133.145 194.047L138.125 201.442H134.235L130.977 196.356ZM144.793 201.676C142.934 201.676 141.418 201.106 140.246 199.965C139.082 198.825 138.5 197.305 138.5 195.407V195.079C138.5 193.805 138.746 192.668 139.238 191.668C139.731 190.661 140.426 189.887 141.324 189.348C142.231 188.801 143.262 188.528 144.418 188.528C146.153 188.528 147.516 189.075 148.508 190.168C149.508 191.262 150.008 192.813 150.008 194.821V196.204H141.934C142.043 197.032 142.371 197.696 142.918 198.196C143.473 198.696 144.172 198.946 145.016 198.946C146.321 198.946 147.34 198.473 148.074 197.528L149.738 199.391C149.231 200.11 148.543 200.672 147.676 201.079C146.809 201.477 145.848 201.676 144.793 201.676ZM144.406 191.27C143.735 191.27 143.188 191.497 142.766 191.95C142.352 192.403 142.086 193.051 141.969 193.895H146.68V193.625C146.664 192.875 146.461 192.297 146.071 191.891C145.68 191.477 145.125 191.27 144.406 191.27ZM159.067 191.938C158.606 191.875 158.199 191.844 157.848 191.844C156.567 191.844 155.727 192.278 155.328 193.145V201.442H151.942V188.762H155.141L155.235 190.274C155.914 189.11 156.856 188.528 158.059 188.528C158.434 188.528 158.785 188.579 159.113 188.68L159.067 191.938Z" fill="white"/>
<defs>
<clipPath id="clip0">
<rect width="180.311" height="171.911" fill="white" transform="translate(1.87598)"/>
</clipPath>
</defs>
</svg>
