<svg width="658" height="70" viewBox="0 0 658 70" fill="none" xmlns="http://www.w3.org/2000/svg">
<path d="M2.76125 41.64H0.76125V42.6813L1.61433 43.2785L2.76125 41.64ZM2.76125 31.56L1.61433 29.9215L0.76125 30.5187V31.56H2.76125ZM27.5613 14.2H29.5613V10.3587L26.4143 12.5615L27.5613 14.2ZM27.5613 25.48L28.7301 27.1029L29.5613 26.5043V25.48H27.5613ZM12.1213 36.6L10.9524 34.9771L8.69903 36.6L10.9524 38.2229L12.1213 36.6ZM27.5613 47.72H29.5613V46.6957L28.7301 46.0971L27.5613 47.72ZM27.5613 59L26.4143 60.6385L29.5613 62.8413V59H27.5613ZM4.76125 41.64V31.56H0.76125V41.64H4.76125ZM3.90817 33.1985L28.7082 15.8385L26.4143 12.5615L1.61433 29.9215L3.90817 33.1985ZM25.5613 14.2V25.48H29.5613V14.2H25.5613ZM26.3924 23.8571L10.9524 34.9771L13.2901 38.2229L28.7301 27.1029L26.3924 23.8571ZM10.9524 38.2229L26.3924 49.3429L28.7301 46.0971L13.2901 34.9771L10.9524 38.2229ZM25.5613 47.72V59H29.5613V47.72H25.5613ZM28.7082 57.3615L3.90817 40.0015L1.61433 43.2785L26.4143 60.6385L28.7082 57.3615ZM63.265 12.84H65.265V10.84H63.265V12.84ZM53.505 12.84H51.505V14.84H53.505V12.84ZM53.505 2.2V0.199995H51.505V2.2H53.505ZM87.345 2.2H89.345V0.199995H87.345V2.2ZM87.345 12.84V14.84H89.345V12.84H87.345ZM77.665 12.84V10.84H75.665V12.84H77.665ZM77.665 67V69H79.665V67H77.665ZM63.265 67H61.265V69H63.265V67ZM63.265 10.84H53.505V14.84H63.265V10.84ZM55.505 12.84V2.2H51.505V12.84H55.505ZM53.505 4.2H87.345V0.199995H53.505V4.2ZM85.345 2.2V12.84H89.345V2.2H85.345ZM87.345 10.84H77.665V14.84H87.345V10.84ZM75.665 12.84V67H79.665V12.84H75.665ZM77.665 65H63.265V69H77.665V65ZM65.265 67V12.84H61.265V67H65.265ZM99.2794 2.2V0.199995H97.6218L97.3141 1.82878L99.2794 2.2ZM115.599 2.2L117.566 1.83347L117.261 0.199995H115.599V2.2ZM127.679 67V69H130.087L129.646 66.6335L127.679 67ZM114.479 67L112.504 67.3119L112.77 69H114.479V67ZM112.319 53.32L114.295 53.0081L114.028 51.32H112.319V53.32ZM102.799 53.32V51.32H101.1L100.826 52.9968L102.799 53.32ZM100.559 67V69H102.259L102.533 67.3232L100.559 67ZM87.0394 67L85.0741 66.6288L84.6262 69H87.0394V67ZM110.959 44.76V46.76H113.25L112.941 44.4903L110.959 44.76ZM107.519 19.48L109.501 19.2103L105.538 19.2103L107.519 19.48ZM104.079 44.76L102.098 44.4903L101.789 46.76H104.079V44.76ZM99.2794 4.2H115.599V0.199995H99.2794V4.2ZM113.633 2.56652L125.713 67.3665L129.646 66.6335L117.566 1.83347L113.633 2.56652ZM127.679 65H114.479V69H127.679V65ZM116.455 66.6881L114.295 53.0081L110.344 53.6319L112.504 67.3119L116.455 66.6881ZM112.319 51.32H102.799V55.32H112.319V51.32ZM100.826 52.9968L98.5857 66.6768L102.533 67.3232L104.773 53.6432L100.826 52.9968ZM100.559 65H87.0394V69H100.559V65ZM89.0046 67.3712L101.245 2.57121L97.3141 1.82878L85.0741 66.6288L89.0046 67.3712ZM112.941 44.4903L109.501 19.2103L105.538 19.7497L108.978 45.0297L112.941 44.4903ZM105.538 19.2103L102.098 44.4903L106.061 45.0297L109.501 19.7497L105.538 19.2103ZM104.079 46.76H110.959V42.76H104.079V46.76ZM135.102 2.2V0.199995H133.136L133.102 2.16543L135.102 2.2ZM150.462 2.2L152.427 1.82865L152.119 0.199995H150.462V2.2ZM157.582 39.88L155.617 40.2513L159.542 40.2794L157.582 39.88ZM165.262 2.2V0.199995H163.628L163.302 1.80056L165.262 2.2ZM180.062 2.2L182.062 2.16543L182.028 0.199995H180.062V2.2ZM181.182 67V69H183.217L183.182 66.9654L181.182 67ZM171.022 67L169.023 67.0556L169.077 69H171.022V67ZM169.822 23.88L171.821 23.8244L167.852 23.5364L169.822 23.88ZM162.302 67V69H163.983L164.272 67.3436L162.302 67ZM153.262 67L151.295 67.3622L151.597 69H153.262V67ZM145.262 23.56L147.229 23.1978L143.262 23.5158L145.262 23.56ZM144.302 67V69H146.258L146.301 67.0442L144.302 67ZM133.982 67L131.982 66.9654L131.947 69H133.982V67ZM135.102 4.2H150.462V0.199995H135.102V4.2ZM148.497 2.57134L155.617 40.2513L159.547 39.5087L152.427 1.82865L148.497 2.57134ZM159.542 40.2794L167.222 2.59943L163.302 1.80056L155.622 39.4806L159.542 40.2794ZM165.262 4.2H180.062V0.199995H165.262V4.2ZM178.062 2.23456L179.182 67.0346L183.182 66.9654L182.062 2.16543L178.062 2.23456ZM181.182 65H171.022V69H181.182V65ZM173.021 66.9444L171.821 23.8244L167.823 23.9356L169.023 67.0556L173.021 66.9444ZM167.852 23.5364L160.332 66.6564L164.272 67.3436L171.792 24.2236L167.852 23.5364ZM162.302 65H153.262V69H162.302V65ZM155.229 66.6378L147.229 23.1978L143.295 23.9222L151.295 67.3622L155.229 66.6378ZM143.262 23.5158L142.302 66.9558L146.301 67.0442L147.261 23.6042L143.262 23.5158ZM144.302 65H133.982V69H144.302V65ZM135.982 67.0346L137.102 2.23456L133.102 2.16543L131.982 66.9654L135.982 67.0346ZM190.55 2.2V0.199995H188.55V2.2H190.55ZM218.15 3.56L217.559 5.4708L217.58 5.47714L217.601 5.48304L218.15 3.56ZM225.35 8.6L226.97 7.42776L225.35 8.6ZM225.59 28.12L224.009 26.8949L224.009 26.8949L225.59 28.12ZM218.55 32.2L218.171 30.2362L218.295 34.1837L218.55 32.2ZM190.55 67H188.55V69H190.55V67ZM213.83 26.04L212.274 24.7833L212.259 24.8018L212.245 24.8206L213.83 26.04ZM213.43 13.8L212.044 15.2417L212.058 15.2558L212.073 15.2696L213.43 13.8ZM204.87 11.8V9.8H202.87V11.8H204.87ZM204.87 28.12H202.87V30.12H204.87V28.12ZM214.31 54.76L212.769 53.4849L212.765 53.4905L214.31 54.76ZM214.31 39.8L212.765 41.0695L212.778 41.0857L212.791 41.1016L214.31 39.8ZM204.87 37.56V35.56H202.87V37.56H204.87ZM204.87 57H202.87V59H204.87V57ZM190.55 4.2H207.43V0.199995H190.55V4.2ZM207.43 4.2C211.512 4.2 214.874 4.64065 217.559 5.4708L218.741 1.64919C215.56 0.666006 211.775 0.199995 207.43 0.199995V4.2ZM217.601 5.48304C220.158 6.21376 222.18 7.63038 223.73 9.77224L226.97 7.42776C224.893 4.55628 222.115 2.61291 218.699 1.63695L217.601 5.48304ZM223.73 9.77224C225.205 11.8124 226.07 14.8605 226.07 19.16H230.07C230.07 14.3928 229.121 10.401 226.97 7.42776L223.73 9.77224ZM226.07 19.16C226.07 22.739 225.297 25.2333 224.009 26.8949L227.171 29.3451C229.19 26.74 230.07 23.261 230.07 19.16H226.07ZM224.009 26.8949C222.697 28.588 220.809 29.7272 218.171 30.2362L218.929 34.1638C222.371 33.4995 225.176 31.9186 227.171 29.3451L224.009 26.8949ZM218.295 34.1837C221.568 34.6045 223.898 35.9415 225.502 38.1097L228.718 35.7303C226.376 32.5652 222.999 30.7555 218.805 30.2163L218.295 34.1837ZM225.502 38.1097C227.14 40.3223 228.07 43.4813 228.07 47.8H232.07C232.07 42.9454 231.027 38.8511 228.718 35.7303L225.502 38.1097ZM228.07 47.8C228.07 53.8811 226.521 58.077 223.77 60.7713C221.012 63.473 216.705 65 210.47 65V69C217.301 69 222.794 67.327 226.57 63.6287C230.353 59.923 232.07 54.5189 232.07 47.8H228.07ZM210.47 65H190.55V69H210.47V65ZM192.55 67V2.2H188.55V67H192.55ZM207.67 30.12C210.888 30.12 213.764 29.4066 215.415 27.2594L212.245 24.8206C211.763 25.4468 210.532 26.12 207.67 26.12V30.12ZM215.386 27.2967C216.927 25.3882 217.51 22.6781 217.51 19.56H213.51C213.51 22.3086 212.973 23.9185 212.274 24.7833L215.386 27.2967ZM217.51 19.56C217.51 16.6488 216.714 14.1097 214.787 12.3304L212.073 15.2696C212.919 16.0503 213.51 17.3512 213.51 19.56H217.51ZM214.816 12.3583C212.933 10.5476 210.331 9.8 207.35 9.8V13.8C209.702 13.8 211.154 14.3857 212.044 15.2417L214.816 12.3583ZM207.35 9.8H204.87V13.8H207.35V9.8ZM202.87 11.8V28.12H206.87V11.8H202.87ZM204.87 30.12H207.67V26.12H204.87V30.12ZM207.91 59C211.205 59 214.075 58.1974 215.855 56.0295L212.765 53.4905C212.092 54.3092 210.695 55 207.91 55V59ZM215.851 56.0351C217.563 53.9662 218.23 51.0096 218.23 47.56H214.23C214.23 50.6171 213.617 52.4604 212.769 53.4849L215.851 56.0351ZM218.23 47.56C218.23 43.7676 217.594 40.5586 215.829 38.4984L212.791 41.1016C213.586 42.0281 214.23 43.9924 214.23 47.56H218.23ZM215.855 38.5305C214.069 36.3558 211.165 35.56 207.83 35.56V39.56C210.682 39.56 212.098 40.2575 212.765 41.0695L215.855 38.5305ZM207.83 35.56H204.87V39.56H207.83V35.56ZM202.87 37.56V57H206.87V37.56H202.87ZM204.87 59H207.91V55H204.87V59ZM246.545 2.2V0.199995H244.887L244.58 1.82878L246.545 2.2ZM262.865 2.2L264.831 1.83347L264.527 0.199995H262.865V2.2ZM274.945 67V69H277.352L276.911 66.6335L274.945 67ZM261.745 67L259.769 67.3119L260.036 69H261.745V67ZM259.585 53.32L261.561 53.0081L261.294 51.32H259.585V53.32ZM250.065 53.32V51.32H248.366L248.091 52.9968L250.065 53.32ZM247.825 67V69H249.524L249.799 67.3232L247.825 67ZM234.305 67L232.34 66.6288L231.892 69H234.305V67ZM258.225 44.76V46.76H260.516L260.207 44.4903L258.225 44.76ZM254.785 19.48L256.767 19.2103L252.803 19.2103L254.785 19.48ZM251.345 44.76L249.363 44.4903L249.054 46.76H251.345V44.76ZM246.545 4.2H262.865V0.199995H246.545V4.2ZM260.899 2.56652L272.979 67.3665L276.911 66.6335L264.831 1.83347L260.899 2.56652ZM274.945 65H261.745V69H274.945V65ZM263.721 66.6881L261.561 53.0081L257.609 53.6319L259.769 67.3119L263.721 66.6881ZM259.585 51.32H250.065V55.32H259.585V51.32ZM248.091 52.9968L245.851 66.6768L249.799 67.3232L252.039 53.6432L248.091 52.9968ZM247.825 65H234.305V69H247.825V65ZM236.27 67.3712L248.51 2.57121L244.58 1.82878L232.34 66.6288L236.27 67.3712ZM260.207 44.4903L256.767 19.2103L252.803 19.7497L256.243 45.0297L260.207 44.4903ZM252.803 19.2103L249.363 44.4903L253.327 45.0297L256.767 19.7497L252.803 19.2103ZM251.345 46.76H258.225V42.76H251.345V46.76ZM281.728 2.2V0.199995H279.728V2.2H281.728ZM296.048 2.2H298.048V0.199995H296.048V2.2ZM296.048 28.44H294.048V30.44H296.048V28.44ZM306.048 28.44V30.44H308.048V28.44H306.048ZM306.048 2.2V0.199995H304.048V2.2H306.048ZM320.448 2.2H322.448V0.199995H320.448V2.2ZM320.448 67V69H322.448V67H320.448ZM306.048 67H304.048V69H306.048V67ZM306.048 38.68H308.048V36.68H306.048V38.68ZM296.048 38.68V36.68H294.048V38.68H296.048ZM296.048 67V69H298.048V67H296.048ZM281.728 67H279.728V69H281.728V67ZM281.728 4.2H296.048V0.199995H281.728V4.2ZM294.048 2.2V28.44H298.048V2.2H294.048ZM296.048 30.44H306.048V26.44H296.048V30.44ZM308.048 28.44V2.2H304.048V28.44H308.048ZM306.048 4.2H320.448V0.199995H306.048V4.2ZM318.448 2.2V67H322.448V2.2H318.448ZM320.448 65H306.048V69H320.448V65ZM308.048 67V38.68H304.048V67H308.048ZM306.048 36.68H296.048V40.68H306.048V36.68ZM294.048 38.68V67H298.048V38.68H294.048ZM296.048 65H281.728V69H296.048V65ZM283.728 67V2.2H279.728V67H283.728ZM351.664 2.2V0.199995H349.699L349.665 2.16543L351.664 2.2ZM367.024 2.2L368.99 1.82865L368.682 0.199995H367.024V2.2ZM374.144 39.88L372.179 40.2513L376.104 40.2794L374.144 39.88ZM381.824 2.2V0.199995H380.191L379.865 1.80056L381.824 2.2ZM396.624 2.2L398.624 2.16543L398.59 0.199995H396.624V2.2ZM397.744 67V69H399.779L399.744 66.9654L397.744 67ZM387.584 67L385.585 67.0556L385.639 69H387.584V67ZM386.384 23.88L388.384 23.8244L384.414 23.5364L386.384 23.88ZM378.864 67V69H380.546L380.835 67.3436L378.864 67ZM369.824 67L367.857 67.3622L368.159 69H369.824V67ZM361.824 23.56L363.791 23.1978L359.825 23.5158L361.824 23.56ZM360.864 67V69H362.821L362.864 67.0442L360.864 67ZM350.544 67L348.545 66.9654L348.51 69H350.544V67ZM351.664 4.2H367.024V0.199995H351.664V4.2ZM365.059 2.57134L372.179 40.2513L376.11 39.5087L368.99 1.82865L365.059 2.57134ZM376.104 40.2794L383.784 2.59943L379.865 1.80056L372.185 39.4806L376.104 40.2794ZM381.824 4.2H396.624V0.199995H381.824V4.2ZM394.625 2.23456L395.745 67.0346L399.744 66.9654L398.624 2.16543L394.625 2.23456ZM397.744 65H387.584V69H397.744V65ZM389.584 66.9444L388.384 23.8244L384.385 23.9356L385.585 67.0556L389.584 66.9444ZM384.414 23.5364L376.894 66.6564L380.835 67.3436L388.355 24.2236L384.414 23.5364ZM378.864 65H369.824V69H378.864V65ZM371.791 66.6378L363.791 23.1978L359.857 23.9222L367.857 67.3622L371.791 66.6378ZM359.825 23.5158L358.865 66.9558L362.864 67.0442L363.824 23.6042L359.825 23.5158ZM360.864 65H350.544V69H360.864V65ZM352.544 67.0346L353.664 2.23456L349.665 2.16543L348.545 66.9654L352.544 67.0346ZM416.233 2.2V0.199995H414.575L414.267 1.82878L416.233 2.2ZM432.553 2.2L434.519 1.83347L434.214 0.199995H432.553V2.2ZM444.633 67V69H447.04L446.599 66.6335L444.633 67ZM431.433 67L429.457 67.3119L429.724 69H431.433V67ZM429.273 53.32L431.248 53.0081L430.981 51.32H429.273V53.32ZM419.753 53.32V51.32H418.053L417.779 52.9968L419.753 53.32ZM417.513 67V69H419.212L419.486 67.3232L417.513 67ZM403.993 67L402.027 66.6288L401.579 69H403.993V67ZM427.913 44.76V46.76H430.203L429.894 44.4903L427.913 44.76ZM424.473 19.48L426.454 19.2103L422.491 19.2103L424.473 19.48ZM421.033 44.76L419.051 44.4903L418.742 46.76H421.033V44.76ZM416.233 4.2H432.553V0.199995H416.233V4.2ZM430.586 2.56652L442.666 67.3665L446.599 66.6335L434.519 1.83347L430.586 2.56652ZM444.633 65H431.433V69H444.633V65ZM433.408 66.6881L431.248 53.0081L427.297 53.6319L429.457 67.3119L433.408 66.6881ZM429.273 51.32H419.753V55.32H429.273V51.32ZM417.779 52.9968L415.539 66.6768L419.486 67.3232L421.726 53.6432L417.779 52.9968ZM417.513 65H403.993V69H417.513V65ZM405.958 67.3712L418.198 2.57121L414.267 1.82878L402.027 66.6288L405.958 67.3712ZM429.894 44.4903L426.454 19.2103L422.491 19.7497L425.931 45.0297L429.894 44.4903ZM422.491 19.2103L419.051 44.4903L423.014 45.0297L426.454 19.7497L422.491 19.2103ZM421.033 46.76H427.913V42.76H421.033V46.76ZM453.578 12.84H455.578V10.84H453.578V12.84ZM443.818 12.84H441.818V14.84H443.818V12.84ZM443.818 2.2V0.199995H441.818V2.2H443.818ZM477.658 2.2H479.658V0.199995H477.658V2.2ZM477.658 12.84V14.84H479.658V12.84H477.658ZM467.978 12.84V10.84H465.978V12.84H467.978ZM467.978 67V69H469.978V67H467.978ZM453.578 67H451.578V69H453.578V67ZM453.578 10.84H443.818V14.84H453.578V10.84ZM445.818 12.84V2.2H441.818V12.84H445.818ZM443.818 4.2H477.658V0.199995H443.818V4.2ZM475.658 2.2V12.84H479.658V2.2H475.658ZM477.658 10.84H467.978V14.84H477.658V10.84ZM465.978 12.84V67H469.978V12.84H465.978ZM467.978 65H453.578V69H467.978V65ZM455.578 67V12.84H451.578V67H455.578ZM483.363 2.2V0.199995H481.363V2.2H483.363ZM497.683 2.2H499.683V0.199995H497.683V2.2ZM497.683 28.68H495.683L499.532 29.4401L497.683 28.68ZM508.563 2.2V0.199995H507.222L506.713 1.4399L508.563 2.2ZM522.563 2.2L524.413 2.95844L525.544 0.199995H522.563V2.2ZM510.563 31.48L508.712 30.7216L508.423 31.4275L508.677 32.1467L510.563 31.48ZM523.123 67V69H525.951L525.008 66.3332L523.123 67ZM508.563 67L506.661 67.6213L507.112 69H508.563V67ZM499.203 38.36L501.104 37.7387L499.734 33.5477L497.483 37.3389L499.203 38.36ZM497.683 40.92L495.963 39.8989L495.683 40.371V40.92H497.683ZM497.683 67V69H499.683V67H497.683ZM483.363 67H481.363V69H483.363V67ZM483.363 4.2H497.683V0.199995H483.363V4.2ZM495.683 2.2V28.68H499.683V2.2H495.683ZM499.532 29.4401L510.412 2.96009L506.713 1.4399L495.833 27.9199L499.532 29.4401ZM508.563 4.2H522.563V0.199995H508.563V4.2ZM520.712 1.44155L508.712 30.7216L512.413 32.2384L524.413 2.95844L520.712 1.44155ZM508.677 32.1467L521.237 67.6668L525.008 66.3332L512.448 30.8132L508.677 32.1467ZM523.123 65H508.563V69H523.123V65ZM510.464 66.3787L501.104 37.7387L497.301 38.9813L506.661 67.6213L510.464 66.3787ZM497.483 37.3389L495.963 39.8989L499.402 41.9411L500.922 39.3811L497.483 37.3389ZM495.683 40.92V67H499.683V40.92H495.683ZM497.683 65H483.363V69H497.683V65ZM485.363 67V2.2H481.363V67H485.363ZM535.875 65.64L534.89 67.3805L534.902 67.3876L534.915 67.3945L535.875 65.64ZM529.875 58.68L527.994 59.3609L528.002 59.3806L528.009 59.4002L529.875 58.68ZM528.195 2.2V0.199995H526.195V2.2H528.195ZM542.355 2.2H544.355V0.199995H542.355V2.2ZM543.315 55.32L541.467 56.0847L541.478 56.1116L541.49 56.1381L543.315 55.32ZM551.395 55.32L549.547 54.5553L549.547 54.5553L551.395 55.32ZM552.355 2.2V0.199995H550.355V2.2H552.355ZM566.595 2.2H568.595V0.199995H566.595V2.2ZM564.835 58.68L566.701 59.4002L566.705 59.3893L564.835 58.68ZM558.835 65.64L559.809 67.3868L559.82 67.3805L558.835 65.64ZM547.395 65.96C542.721 65.96 539.255 65.2098 536.835 63.8855L534.915 67.3945C538.148 69.1635 542.362 69.96 547.395 69.96V65.96ZM536.86 63.8995C534.438 62.5283 532.748 60.5696 531.741 57.9598L528.009 59.4002C529.349 62.8704 531.659 65.5517 534.89 67.3805L536.86 63.8995ZM531.756 57.9991C530.741 55.1977 530.195 51.5284 530.195 46.92H526.195C526.195 51.805 526.769 55.9756 527.994 59.3609L531.756 57.9991ZM530.195 46.92V2.2H526.195V46.92H530.195ZM528.195 4.2H542.355V0.199995H528.195V4.2ZM540.355 2.2V49.08H544.355V2.2H540.355ZM540.355 49.08C540.355 51.8245 540.686 54.1982 541.467 56.0847L545.163 54.5553C544.664 53.3484 544.355 51.5622 544.355 49.08H540.355ZM541.49 56.1381C541.995 57.2652 542.786 58.184 543.866 58.7986C544.924 59.4 546.135 59.64 547.395 59.64V55.64C546.628 55.64 546.146 55.4934 545.844 55.3214C545.564 55.1627 545.328 54.9215 545.14 54.5019L541.49 56.1381ZM547.395 59.64C548.653 59.64 549.866 59.4008 550.918 58.7901C551.998 58.1638 552.77 57.2268 553.243 56.0847L549.547 54.5553C549.38 54.9599 549.165 55.1829 548.912 55.3299C548.631 55.4926 548.164 55.64 547.395 55.64V59.64ZM553.243 56.0847C554.024 54.1982 554.355 51.8245 554.355 49.08H550.355C550.355 51.5622 550.046 53.3484 549.547 54.5553L553.243 56.0847ZM554.355 49.08V2.2H550.355V49.08H554.355ZM552.355 4.2H566.595V0.199995H552.355V4.2ZM564.595 2.2V46.92H568.595V2.2H564.595ZM564.595 46.92C564.595 51.5209 564.024 55.1795 562.965 57.9707L566.705 59.3893C567.993 55.9939 568.595 51.8124 568.595 46.92H564.595ZM562.969 57.9598C561.962 60.5696 560.272 62.5283 557.85 63.8995L559.82 67.3805C563.051 65.5517 565.361 62.8704 566.701 59.4002L562.969 57.9598ZM557.861 63.8933C555.502 65.2086 552.072 65.96 547.395 65.96V69.96C552.424 69.96 556.621 69.1647 559.809 67.3867L557.861 63.8933ZM575.706 2.2V0.199995H573.706V2.2H575.706ZM590.026 2.2H592.026V0.199995H590.026V2.2ZM590.026 57.32H588.026V59.32H590.026V57.32ZM604.906 57.32H606.906V55.32H604.906V57.32ZM604.906 67V69H606.906V67H604.906ZM575.706 67H573.706V69H575.706V67ZM575.706 4.2H590.026V0.199995H575.706V4.2ZM588.026 2.2V57.32H592.026V2.2H588.026ZM590.026 59.32H604.906V55.32H590.026V59.32ZM602.906 57.32V67H606.906V57.32H602.906ZM604.906 65H575.706V69H604.906V65ZM577.706 67V2.2H573.706V67H577.706ZM631.164 47.72L629.993 46.0982L629.164 46.6969V47.72H631.164ZM646.684 36.52L647.854 38.1418L650.118 36.5083L647.843 34.8903L646.684 36.52ZM631.164 25.48H629.164V26.5117L630.004 27.1097L631.164 25.48ZM631.164 14.2L632.311 12.5615L629.164 10.3587V14.2H631.164ZM655.964 31.56H657.964V30.5187L657.111 29.9215L655.964 31.56ZM655.964 41.64L657.111 43.2785L657.964 42.6813V41.64H655.964ZM631.164 59H629.164V62.8413L632.311 60.6385L631.164 59ZM632.334 49.3418L647.854 38.1418L645.513 34.8982L629.993 46.0982L632.334 49.3418ZM647.843 34.8903L632.323 23.8503L630.004 27.1097L645.524 38.1497L647.843 34.8903ZM633.164 25.48V14.2H629.164V25.48H633.164ZM630.017 15.8385L654.817 33.1985L657.111 29.9215L632.311 12.5615L630.017 15.8385ZM653.964 31.56V41.64H657.964V31.56H653.964ZM654.817 40.0015L630.017 57.3615L632.311 60.6385L657.111 43.2785L654.817 40.0015ZM633.164 59V47.72H629.164V59H633.164Z" fill="#FF8A00"/>
</svg>
